keyATM Dynamic • keyATM
…
# Divide by a decade
# Timestamp should start with 1 (the variable "Period")
vars %>%
  as_tibble() %>%
  mutate(Period = (vars$Year - 1780) %/% 10 + 1) -> vars_period
vars_period %>% select(Year, Period)

## # A tibble: 58 x 2
##     Year Period
##    <int>  <dbl>
##  1  1789      1
##  2  1793      2
##  3  1797      2
##  4  1801      3
##  5  1805      3
##  6  1809      3
##  7  1813      4
##  8  1817      4
##  9  1821      5
## 10  1825      5
## # … with 48 more rows
…
