Customizing Plots • keyATM
…
The values_fig() function returns a tibble used to create the plot.

values_fig(fig_timetrend)

## # A tibble: 290 x 5
##    time_index Topic             Lower  Point  Upper
##         <int> <chr>             <dbl>  <dbl>  <dbl>
##  1       1789 1_Government     0.100  0.113  0.125 
##  2       1789 2_Congress       0.154  0.182  0.211 
##  3       1789 3_Peace          0.0441 0.0618 0.0800
##  4       1789 4_Constitution   0.215  0.232  0.254 
##  5       1789 5_ForeignAffairs 0.121  0.148  0.173 
##  6       1793 1_Government     0.209  0.247  0.287 
##  7       1793 2_Congress       0.0207 0.0699 0.0991
##  8       1793 3_Peace          0.0574 0.0876 0.112 
##  9       1793 4_Constitution   0.257  0.312  0.388 
## 10       1793 5_ForeignAffairs 0.0522 0.0819 0.112 
## # … with 280 more rows
…
